BSC_project_IPFS2023 - Week3: Spikelet development
…
0.2 Data format overview

# path <- getwd() %>% sub("posts.*","data",.)
# dat <-read.csv(paste0(path,'/kernel_combine.csv'))
dat <-read.csv('./data/kernel_combine.csv',
                header = T,stringsAsFactors = F) %>%
  dplyr::filter(tiller=="M")
glimpse(dat)

1 check the combination of the experimental design

dat %>% group_by(car,var,nitrogen,time,rep) %>% summarise()

# A tibble: 227 x 5
# Groups:   car, var, nitrogen, time [48]
     car var     nitrogen time    rep
   <int> <chr>   <chr>    <chr> <int>
 1     1 Alves   n3       t1        1
 2     1 Alves   n3       t1        2
 3     1 Alves   n3       t1        3
 4     1 Alves   n3       t1        4
 5     1 Alves   n3       t1        5
 6     1 Apertus n3       t1        1
 7     1 Apertus n3       t1        2
 8     1 Apertus n3       t1        4
 9     1 Apertus n3       t1        5
10     1 Esket   n3       t1        1
# ... with 217 more rows
…
