BSC_project_IPFS2023 - Week4: Grain development
…
 [1] "DayTime"                "y"                      "m"                     
 [4] "d"                      "Acc_Temperature"        "Acc_Percipitation"     
 [7] "Acc_Radiation"          "sowing_date"            "DFG_year"              
[10] "DailyMean_Temperature"  "DailySum_Percipitation" "DailySum_Radiation"    

3 Spikelet position practice

read kernel_combine.csv in folder data using relative path. subset column tiller which match pattern M.

How can you get the unique combination of car,var,nitrogen and time? Which combinations of functions can you use?

challenge

# A tibble: 48 x 4
# Groups:   car, var, nitrogen [48]
     car var       nitrogen time 
   <int> <chr>     <chr>    <chr>
 1     1 Alves     n3       t1   
 2     1 Apertus   n3       t1   
 3     1 Esket     n3       t1   
 4     1 Pioneer   n3       t1   
 5     1 Potential n3       t1   
 6     1 Torrid    n3       t1   
 7     2 Alves     n4       t1   
 8     2 Apertus   n4       t1   
 9     2 Esket     n4       t1   
10     2 Pioneer   n4       t1   
# i 38 more rows
…
